{
  "name": "Archeops",
  "nationalPokedexNumber": 567,
  "primaryType": "rock",
  "secondaryType": "flying",
  "abilities": [
    "defeatist"
  ],
  "baseStats": {
    "hp": 75,
    "attack": 140,
    "defence": 65,
    "special_attack": 112,
    "special_defence": 65,
    "speed": 110
  },
  "catchRate": 45,
  "maleRatio": 0.875,
  "shoulderMountable": false,
  "baseExperienceYield": 177,
  "experienceGroup": "medium_fast",
  "eggCycles": 30,
  "eggGroups": [
    "flying",
    "water_3"
  ],
  "moves": [
    "1:leer",
    "1:quickattack",
    "1:rockthrow",
    "1:wingattack",
    "8:doubleteam",
    "9:dragonbreath",
    "12:ancientpower",
    "15:pluck",
    "18:quickguard",
    "21:uturn",
    "24:rockslide",
    "27:scaryface",
    "28:acrobatics",
    "30:crunch",
    "33:agility",
    "36:tailwind",
    "41:dragonclaw",
    "46:thrash",
    "51:endeavor",
    "tm:acrobatics",
    "tm:aerialace",
    "tm:agility",
    "tm:airslash",
    "tm:allyswitch",
    "tm:assurance",
    "tm:attract",
    "tm:bounce",
    "tm:bulldoze",
    "tm:confide",
    "tm:crunch",
    "tm:cut",
    "tm:dig",
    "tm:doubleteam",
    "tm:dragonclaw",
    "tm:dragonpulse",
    "tm:dragontail",
    "tm:earthpower",
    "tm:earthquake",
    "tm:endure",
    "tm:facade",
    "tm:fly",
    "tm:focusblast",
    "tm:frustration",
    "tm:gigaimpact",
    "tm:heatwave",
    "tm:hiddenpower",
    "tm:honeclaws",
    "tm:hyperbeam",
    "tm:irondefense",
    "tm:irontail",
    "tm:outrage",
    "tm:pluck",
    "tm:protect",
    "tm:rest",
    "tm:return",
    "tm:roar",
    "tm:rockblast",
    "tm:rockpolish",
    "tm:rockslide",
    "tm:rocksmash",
    "tm:rocktomb",
    "tm:roost",
    "tm:round",
    "tm:sandstorm",
    "tm:scaryface",
    "tm:secretpower",
    "tm:shadowclaw",
    "tm:sleeptalk",
    "tm:smackdown",
    "tm:snore",
    "tm:stealthrock",
    "tm:steelwing",
    "tm:stoneedge",
    "tm:substitute",
    "tm:swagger",
    "tm:swift",
    "tm:taunt",
    "tm:torment",
    "tm:toxic",
    "tm:uproar",
    "tm:uturn",
    "tm:zenheadbutt",
    "tutor:allyswitch",
    "tutor:aquatail",
    "tutor:bounce",
    "tutor:defog",
    "tutor:dragonpulse",
    "tutor:dualwingbeat",
    "tutor:earthpower",
    "tutor:endeavor",
    "tutor:heatwave",
    "tutor:irondefense",
    "tutor:irontail",
    "tutor:knockoff",
    "tutor:lashout",
    "tutor:meteorbeam",
    "tutor:outrage",
    "tutor:roost",
    "tutor:skyattack",
    "tutor:sleeptalk",
    "tutor:snore",
    "tutor:stealthrock",
    "tutor:tailwind",
    "tutor:uproar",
    "tutor:zenheadbutt"
  ],
  "labels": [
    "gen5"
  ],
  "pokedex": [
    "cobblemon.species.archeops.desc"
  ],
  "preEvolution": "archen",
  "evolutions": [],
  "baseScale": 1,
  "hitbox": {
    "width": 1,
    "height": 1,
    "fixed": false
  },
  "baseFriendship": 50,
  "evYield": {
    "hp": 0,
    "attack": 2,
    "defence": 0,
    "special_attack": 0,
    "special_defence": 0,
    "speed": 0
  },
  "height": 14,
  "weight": 320,
  "aspects": [],
  "cannotDynamax": false
}